…
``` r
raw_data <- read_csv("./data/homicide-data.csv",show_col_types = FALSE)
homicide <- raw_data %>% 
  mutate(
    city_state = str_c(city,", ",state),
    solved = ifelse(disposition == "Closed by arrest",1,0)) %>% 
  mutate(
      victim_sex = fct_relevel(victim_sex, "Female"),
      victim_race = fct_relevel(victim_race, "White"),
         ) 

homicide
```

    ## # A tibble: 52,179 × 14
    ##    uid   repor…¹ victi…² victi…³ victi…⁴ victi…⁵ victi…⁶ city  state   lat   lon
    ##    <chr>   <dbl> <chr>   <chr>   <fct>   <chr>   <fct>   <chr> <chr> <dbl> <dbl>
    ##  1 Alb-…  2.01e7 GARCIA  JUAN    Hispan… 78      Male    Albu… NM     35.1 -107.
    ##  2 Alb-…  2.01e7 MONTOYA CAMERON Hispan… 17      Male    Albu… NM     35.1 -107.
    ##  3 Alb-…  2.01e7 SATTER… VIVIANA White   15      Female  Albu… NM     35.1 -107.
    ##  4 Alb-…  2.01e7 MENDIO… CARLOS  Hispan… 32      Male    Albu… NM     35.1 -107.
    ##  5 Alb-…  2.01e7 MULA    VIVIAN  White   72      Female  Albu… NM     35.1 -107.
    ##  6 Alb-…  2.01e7 BOOK    GERALD… White   91      Female  Albu… NM     35.2 -107.
    ##  7 Alb-…  2.01e7 MALDON… DAVID   Hispan… 52      Male    Albu… NM     35.1 -107.
    ##  8 Alb-…  2.01e7 MALDON… CONNIE  Hispan… 52      Female  Albu… NM     35.1 -107.
    ##  9 Alb-…  2.01e7 MARTIN… GUSTAVO White   56      Male    Albu… NM     35.1 -107.
    ## 10 Alb-…  2.01e7 HERRERA ISRAEL  Hispan… 43      Male    Albu… NM     35.1 -107.
    ## # … with 52,169 more rows, 3 more variables: disposition <chr>,
    ## #   city_state <chr>, solved <dbl>, and abbreviated variable names
    ## #   ¹​reported_date, ²​victim_last, ³​victim_first, ⁴​victim_race, ⁵​victim_age,
    ## #   ⁶​victim_sex
…
## 4. Select the predictors and response variable in Baltimore

``` r
baltimore_df = 
  homicide %>% 
  filter(city == "Baltimore") %>% 
  select(solved, victim_age, victim_race, victim_sex)

baltimore_df
```

    ## # A tibble: 2,753 × 4
    ##    solved victim_age victim_race victim_sex
    ##     <dbl>      <dbl> <fct>       <fct>     
    ##  1      0         17 Black       Male      
    ##  2      0         26 Black       Male      
    ##  3      0         21 Black       Male      
    ##  4      1         61 White       Male      
    ##  5      1         46 Black       Male      
    ##  6      1         27 Black       Male      
    ##  7      1         21 Black       Male      
    ##  8      1         16 Black       Male      
    ##  9      1         21 Black       Male      
    ## 10      1         44 Black       Female    
    ## # … with 2,743 more rows
…
